{
    "descriptors": [
        "GIT"
    ],
    "label": "Mega-Linter for documentation projects",
    "linters": [
        "ANSIBLE_ANSIBLE_LINT",
        "BASH_EXEC",
        "BASH_SHELLCHECK",
        "BASH_SHFMT",
        "COPYPASTE_JSCPD",
        "CSS_STYLELINT",
        "CSS_SCSS_LINT",
        "DOCKERFILE_DOCKERFILELINT",
        "DOCKERFILE_HADOLINT",
        "EDITORCONFIG_EDITORCONFIG_CHECKER",
        "ENV_DOTENV_LINTER",
        "GIT_GIT_DIFF",
        "GRAPHQL_GRAPHQL_SCHEMA_LINTER",
        "GROOVY_NPM_GROOVY_LINT",
        "HTML_HTMLHINT",
        "JSON_JSONLINT",
        "JSON_ESLINT_PLUGIN_JSONC",
        "JSON_V8R",
        "KOTLIN_KTLINT",
        "KUBERNETES_KUBEVAL",
        "MARKDOWN_MARKDOWNLINT",
        "MARKDOWN_MARKDOWN_LINK_CHECK",
        "OPENAPI_SPECTRAL",
        "PROTOBUF_PROTOLINT",
        "SNAKEMAKE_LINT",
        "SNAKEMAKE_SNAKEFMT",
        "SPELL_MISSPELL",
        "SPELL_CSPELL",
        "SQL_SQL_LINT",
        "TEKTON_TEKTON_LINT",
        "XML_XMLLINT",
        "YAML_YAMLLINT",
        "YAML_V8R"
    ]
}